;ODA_NO;DEP_ADI;EK_TEDAVI_N;EK_TEDAVI_Y;U_TEDAVI;C_SAYISI;ALAN;FIYAT
0;12;Dahiliye;0;1;1.0;0.0;0.3333333333333333;0.5357142857142857
1;14;Ortopedi;1;0;1.0;0.0;0.49333333333333335;0.35714285714285715
2;16;Fizik Tedavi;1;0;0.0;0.0;0.0;0.0
3;17;Fizik Tedavi;0;1;1.0;1.0;1.0;1.0
4;20;Kalp Damar;1;0;0.5;0.0;0.2777777777777778;0.03571428571428571
